{
	"description": "项目配置文件",
	"miniprogramRoot": "dist/",
	"packOptions": {
		"ignore": []
	},
	"compileType": "miniprogram",
	"libVersion": "2.8.2",
	"projectname": "mini-1",
	"scripts": {
		"beforeCompile": "npm run tsc",
		"beforePreview": "npm run tsc",
		"beforeUpload": "npm run tsc"
	},
	"setting": {},
	"simulatorType": "wechat",
	"simulatorPluginLibVersion": {},
	"appid": "wx7e569272637b9d47",
	"condition": {}
}